{
    "model": "friends",
    "version": "v14",
    "type": "ObjectDetection",
    "s3_parent_upload_path": "s3://atl-dev--zoo/.ml/training/ActiveLearning",
    "pipeline": {
        "date_start": "2020-10-01",
        "date_end": "2020-10-30",
        "annotation_s3_upload_path": "s3://atl-prd-annotation-cloudfactory/source_media/tasks/friends/batch00022/obj_det-friends-camAll-20201031",
        "model_committee_files_path": null,
        "samples": 5000,
        "top_k": 12000,
        "selection_strategy": "uncertainty_sampling",
        "customers": [
            {
                "name": "bwbelwood",
                "nodename": [

                  "atloverhead01_bwbelwood_prd",
                  "atloverhead02_bwbelwood_prd",
                  "atloverhead03_bwbelwood_prd",
                  "atloverhead04_bwbelwood_prd",
                  "atloverhead05_bwbelwood_prd",
                  "atloverhead06_bwbelwood_prd",
                  "atloverhead07_bwbelwood_prd",
                  "atloverhead08_bwbelwood_prd",
                  "atloverhead09_bwbelwood_prd",
                  "atloverhead10_bwbelwood_prd"
                ],
                "img_s3_base_path": "s3://atl-prd-bwbelwood-rawdata/image_readings/{}/video0/default/{}/{}/{}"
            },
            {
                "name": "remssantaclara",
                "nodename": [
                    "atloverhead01_remssantaclara_prd",
                    "atloverhead03_remssantaclara_prd",
                    "atloverhead04_remssantaclara_prd",
                    "atloverhead06_remssantaclara_prd",
                    "atloverhead07_remssantaclara_prd",
                    "atloverhead08_remssantaclara_prd",
                    "atloverhead09_remssantaclara_prd",
                    "atloverhead10_remssantaclara_prd",
                    "atloverhead11_remssantaclara_prd",
                    "atloverhead12_remssantaclara_prd",
                    "atloverhead13_remssantaclara_prd",
                    "atloverhead14_remssantaclara_prd",
                    "atloverhead15_remssantaclara_prd",
                    "atloverhead16_remssantaclara_prd"
                ],
                "img_s3_base_path": "s3://atl-prd-remssantaclara-rawdata/image_readings/{}/video0/default/{}/{}/{}"

            },
            {
                "name": "iessanleandro",
                "nodename": [
                    "de8cam08_iessanleandro_prd",
                    "de8cam09_iessanleandro_prd",
                    "de8cam10_iessanleandro_prd",
                    "de8cam11_iessanleandro_prd",
                    "de8cam12_iessanleandro_prd",
                    "de8cam13_iessanleandro_prd",
                    "de8cam14_iessanleandro_prd",
                    "de8cam15_iessanleandro_prd",
                    "de8cam16_iessanleandro_prd",
                    "de8cam17_iessanleandro_prd",
                    "de8cam18_iessanleandro_prd",
                    "de8cam19_iessanleandro_prd",
                    "dw4cam02_iessanleandro_prd",
                    "dw4cam04_iessanleandro_prd",
                    "dw4cam05_iessanleandro_prd",
                    "dw4cam06_iessanleandro_prd",
                    "dw4cam07_iessanleandro_prd"
                ],
                "img_s3_base_path": "s3://atl-prd-iessanleandro-data/friends/{}/video0/operators/undistorted/{}/{}/{}"
            },
            {
                "name": "rheemwater",
                "nodename": [
                    "atloverhead01_rheemwater_prd",
                    "atloverhead02_rheemwater_prd",
                    "atloverhead03_rheemwater_prd",
                    "atloverhead04_rheemwater_prd",
                    "atloverhead06_rheemwater_prd",
                    "atloverhead07_rheemwater_prd",
                    "atloverhead09_rheemwater_prd",
                    "atloverhead08_rheemwater_prd",
                    "atloverhead10_rheemwater_prd"
                ],
                "img_s3_base_path": "s3://atl-prd-rheemwater-rawdata/image_readings/{}/video0/default/{}/{}/{}"
            },
            {
                "name": "sgucheraw",
                "nodename": [
                    "de8cam01_sgucheraw_prd",
                    "de8cam03_sgucheraw_prd",
                    "de8cam04_sgucheraw_prd",
                    "de8cam06_sgucheraw_prd"
                ],
                "img_s3_base_path": "s3://atl-prd-sgucheraw-rawdata/image_readings/{}/video0/heartbeat/{}/{}/{}"
            },
            {
                "name": "wilsonart",
                "nodename": [
                    "atloverhead01_wilsonart_prd",
                    "atloverhead03_wilsonart_prd",
                    "atloverhead04_wilsonart_prd",
                    "atloverhead05_wilsonart_prd",
                    "atloverhead07_wilsonart_prd",
                    "atloverhead08_wilsonart_prd",
                    "atloverhead10_wilsonart_prd",
                    "atloverhead11_wilsonart_prd",
                    "atloverhead18_wilsonart_prd",
                    "atloverhead19_wilsonart_prd"
                ],
                "img_s3_base_path": "s3://atl-prd-wilsonart-rawdata/image_readings/{}/video0/default/{}/{}/{}"
            }
        ]
    },
    "model_training": {
        "ObjectDetection": {
            "train_iterations": 30,
            "use_previous_tf_records": true,
            "num_committee_models": 1,
            "num_gpus": 1,
            "batch_size": 1,
            "include_metrics_per_category": true,
            "pretrained_model_s3_path": "s3://atl-dev--zoo/.ml/training/ActiveLearning/friends/v14/model_committee",
            "pipeline_config_path": null
        }
    }
}